…
- `df_species`: dataframe for species density and traits. Columns
  include species id (species), temporal mean (`mean_density`) and sd of
  species density (`sd_density`), carrying capacity (`k`), intrinsic
  population growth rate (`r`), and interspecific competition
  coefficient with the stocked species (`alpha_j1`).

- `interaction_matrix`: matrix of intra- and interspecific interactions.

``` r
print(sim)
```

    ## $df_dyn
    ## # A tibble: 10,000 × 3
    ##    timestep species density
    ##       <dbl>   <dbl>   <dbl>
    ##  1        1       1    19.5
    ##  2        1       2    18.2
    ##  3        1       3    23.5
    ##  4        1       4    14.8
    ##  5        1       5    14.5
    ##  6        1       6    22.2
    ##  7        1       7    23.9
    ##  8        1       8    19.8
    ##  9        1       9    23.6
    ## 10        1      10    18.3
    ## # … with 9,990 more rows
    ## 
    ## $df_community
…
